<?xml version="1.0" encoding="utf-8"?>
<!-- Generator: Adobe Illustrator 23.1.0, SVG Export Plug-In . SVG Version: 6.00 Build 0)  -->
<svg version="1.1" id="Layer_1" xmlns="http://www.w3.org/2000/svg" xmlns:xlink="http://www.w3.org/1999/xlink" x="0px" y="0px"
	 viewBox="0 0 40 40" style="enable-background:new 0 0 40 40;" xml:space="preserve">
<style type="text/css">
	.st0{fill:#93B8C0;}
</style>
<g>
	<path class="st0" d="M20,15.6c-0.8,0-1.5-0.7-1.5-1.5c0-0.8,0.7-1.5,1.5-1.5c0.8,0,1.5,0.7,1.5,1.5C21.5,14.9,20.9,15.6,20,15.6z
		 M20,11.5c-1.5,0-2.7,1.2-2.7,2.7c0,1.5,1.2,2.7,2.7,2.7c1.5,0,2.7-1.2,2.7-2.7C22.7,12.7,21.5,11.5,20,11.5z"/>
	<path class="st0" d="M30.7,14c-1.3,0-2-1.7-1.1-2.6c0.3-0.3,0.7-0.4,1.1-0.4c0.8,0,1.5,0.7,1.5,1.5C32.2,13.3,31.6,14,30.7,14z
		 M30.7,9.8c-2.3,0-3.5,2.9-1.9,4.6c0.5,0.5,1.2,0.8,1.9,0.8c1.5,0,2.7-1.2,2.7-2.7C33.4,11,32.2,9.8,30.7,9.8z"/>
	<path class="st0" d="M9.4,14c-0.8,0-1.5-0.7-1.5-1.5c0-0.4,0.2-0.8,0.5-1.1c0.3-0.3,0.7-0.5,1.1-0.5c0.8,0,1.5,0.7,1.5,1.5
		C10.9,13.3,10.2,14,9.4,14z M9.4,9.8c-1.5,0-2.7,1.2-2.7,2.7c0,1.5,1.2,2.7,2.7,2.7c1.5,0,2.7-1.2,2.7-2.7C12,11,10.8,9.8,9.4,9.8z
		"/>
	<path class="st0" d="M16.3,7.1c-0.6,0-1.1-0.5-1.1-1.1s0.5-1.1,1.1-1.1c0.6,0,1.1,0.5,1.1,1.1C17.4,6.6,16.9,7.1,16.3,7.1z
		 M16.3,3.7C15,3.7,14,4.7,14,6c0,1.3,1,2.3,2.3,2.3c1.3,0,2.3-1,2.3-2.3S17.5,3.7,16.3,3.7z"/>
	<path class="st0" d="M14.9,22c-0.3,0-0.6,0.3-0.6,0.6v0.9c0,0.3,0.3,0.6,0.6,0.6s0.6-0.3,0.6-0.6v-0.9C15.5,22.2,15.2,22,14.9,22z"
		/>
	<path class="st0" d="M25.2,22c-0.3,0-0.6,0.3-0.6,0.6v0.9c0,0.3,0.3,0.6,0.6,0.6c0.3,0,0.6-0.3,0.6-0.6v-0.9
		C25.8,22.2,25.5,22,25.2,22z"/>
	<path class="st0" d="M21.7,23c-0.2-0.2-0.6-0.2-0.8,0.1c-0.2,0.2-0.5,0.4-0.8,0.4c-0.3,0-0.6-0.1-0.8-0.4c-0.2-0.2-0.6-0.3-0.8-0.1
		c-0.2,0.2-0.3,0.6-0.1,0.8c0.4,0.5,1,0.8,1.7,0.8c0.7,0,1.3-0.3,1.7-0.8C22,23.6,21.9,23.2,21.7,23z"/>
	<path class="st0" d="M35.7,15c-0.4,0.9-1.2,1.5-2.2,1.6c0,0,0,0,0,0c-0.2,0-0.4,0-0.6,0c-0.2,0-0.5,0.1-0.6,0.3
		c-0.2,0.4-0.5,0.8-0.9,1c0,0,0,0,0,0C30,18.8,28,18,27.6,16.4c0-0.1,0-0.2-0.1-0.3c0-0.2-0.2-0.4-0.5-0.5c0,0-0.9-0.3-0.9-0.3
		c0.5-0.9,0.7-2,0.4-3c0,0,0,0,0,0c-0.1-0.5-0.4-0.9-0.7-1.3c0.1-0.1,0.3-0.2,0.4-0.3c0.2-0.1,0.3-0.4,0.3-0.6c-0.2-1.5,1-3,2.6-3
		c0.5,0,1.2,0.1,1.8,0.8c0.2,0.2,0.4,0.2,0.7,0.1C32,8,32.4,7.9,32.7,7.9c1.9,0,3.1,2.1,2.3,3.7c-0.1,0.2-0.1,0.5,0.1,0.7
		C35.9,13,36.1,14.1,35.7,15z M22.7,6c0-0.6,0.5-1.1,1.1-1.1C24.4,4.8,25,5.3,25,6c0,0.6-0.5,1.1-1.1,1.1C23.2,7.1,22.7,6.6,22.7,6z
		 M25.4,9.5C25.4,9.5,25.4,9.5,25.4,9.5c-0.2,0.3-0.5,0.5-0.8,0.6c-0.4-0.2-0.8-0.3-1.2-0.3c-0.1-0.3-0.3-0.5-0.4-0.7
		c-0.3-0.4-0.7-0.7-1.1-1c0,0-0.3-0.1-0.3-0.1c0,0,0,0,0,0c0.1-0.3,0.2-0.5,0.3-0.8c0.4,0.7,1.1,1.1,2,1.1c1.3,0,2.3-1,2.3-2.3
		s-1-2.3-2.3-2.3c-1,0-1.9,0.7-2.2,1.6c-0.1-0.1-0.1-0.3-0.2-0.4c-0.1-0.2-0.3-0.5-0.5-0.6c0,0,0,0,0,0c0-0.3,0.1-0.5,0-0.8
		c0-0.3-0.1-0.7-0.2-1c0.4-0.5,1-0.8,1.6-0.8c0.4,0,0.8,0.1,1.2,0.4c0.2,0.1,0.5,0.1,0.7,0c0.4-0.3,0.8-0.4,1.2-0.4
		C26,1.6,26.6,2,27,2.5c0.4,0.5,0.5,1.1,0.3,1.8c-0.1,0.2,0,0.5,0.2,0.6c0.5,0.3,0.7,0.8,0.8,1.3c-0.7,0.2-1.4,0.5-1.9,1.1
		c0,0,0,0,0,0C25.8,7.9,25.5,8.7,25.4,9.5z M24.5,15.5C24.5,15.5,24.5,15.5,24.5,15.5c-0.2,0.1-0.3,0.4-0.2,0.6
		c0.5,1.6-0.7,3.3-2.4,3.3c-0.5,0-1-0.2-1.5-0.5c-0.2-0.1-0.5-0.1-0.7,0c-0.4,0.3-0.9,0.5-1.5,0.5c-1.7,0-2.9-1.7-2.4-3.3
		c0.1-0.2,0-0.4-0.1-0.5c-0.1-0.2-0.4-0.3-0.5-0.5c-1-1.2-0.7-3,0.6-3.8c0.4-0.2,0.8-0.4,1.3-0.4c0.2,0,0.5-0.2,0.5-0.4
		c0.4-1.3,1.5-1.7,2.4-1.7c1.1,0,2.1,0.7,2.4,1.7c0.1,0.2,0.3,0.4,0.5,0.4c1.3,0,2.4,1.1,2.5,2.4c0,0,0,0,0,0
		C25.6,14.2,25.2,15,24.5,15.5z M13.5,14.3c0.1,0.4,0.2,0.7,0.4,1c0,0,0,0,0,0c0,0,0,0,0,0c-0.3,0.1-0.6,0.2-0.9,0.3
		c-0.2,0-0.4,0.2-0.5,0.5c-0.2,1.2-1.2,2.1-2.3,2.2c-0.9,0.1-1.9-0.4-2.4-1.2c-0.2-0.3-0.3-0.5-0.7-0.5C4.8,17,3.3,14,5,12.3
		c0.2-0.2,0.2-0.4,0.1-0.7C4.2,9.9,5.5,7.9,7.3,7.9c0.4,0,0.8,0.1,1.2,0.3C8.7,8.3,9,8.2,9.2,8c1.7-1.7,4.7-0.2,4.3,2.2
		c0,0.2,0.1,0.5,0.3,0.6c0.1,0.1,0.3,0.2,0.4,0.3C13.5,12,13.2,13.2,13.5,14.3z M12.6,4.9c0.2-0.1,0.3-0.4,0.2-0.6
		c-0.2-0.6-0.1-1.3,0.3-1.8c0.4-0.5,1-0.9,1.6-0.9c0.4,0,0.8,0.1,1.2,0.4c0.2,0.1,0.5,0.1,0.7,0c0.4-0.3,0.8-0.4,1.2-0.4
		c0.6,0,1.3,0.3,1.6,0.9c0.4,0.5,0.5,1.2,0.3,1.8c-0.1,0.2,0,0.5,0.2,0.6c0.9,0.6,1.1,1.8,0.5,2.7c0,0,0,0,0,0c-0.1,0-0.3,0-0.3,0
		c-1.5,0-2.8,0.8-3.4,2.2c-0.4,0-0.9,0.2-1.2,0.3c-0.3-0.1-0.6-0.3-0.8-0.6c0,0,0,0,0,0c-0.1-1.6-1.3-2.9-2.9-3.3
		C11.9,5.7,12.2,5.2,12.6,4.9z M27.4,33.2c-0.2,0.3-0.5,0.4-1,0.4c-0.7,0-1.3-0.2-1.9-0.5c-0.7-0.3-1.3-0.7-2-1.2
		c0.2-0.2,0.3-0.4,0.4-0.6c0.1-0.2,0.2-0.5,0.2-0.7c0.7-0.2,1.7-0.4,2.8-0.2c0.3,0,0.6-0.2,0.7-0.5c0-0.3-0.2-0.6-0.5-0.7
		c-1.2-0.2-2.3,0-3.1,0.2c0,0-0.1-0.2-0.1-0.3c-0.1-0.2-0.2-0.4-0.4-0.6c1.6-1.2,3.1-1.7,4-1.7c0,0,0,0,0,0c0.6,0,1.1,0.4,1.1,1
		c0,0.5-0.2,1.3-0.6,2.1c-0.1,0.2-0.1,0.4,0,0.5C27.6,31.8,27.7,32.7,27.4,33.2z M24.2,38.1c-0.3,0.4-0.8,0.6-1.3,0.6h-5.7
		c-0.5,0-1-0.2-1.3-0.6c-0.3-0.4-0.4-0.9-0.3-1.4c0.2-0.8,0.4-1.7,0.7-2.6c0.4-0.2,0.8-0.4,1.1-0.6c0.4-0.3,0.8-0.5,1.2-0.8
		c0,0,0,0,0,0c0,0,0,0,0,0c0.3,0.1,0.5,0.1,0.8,0.1c0,0,1.2,0,1.2,0c0.3,0,0.5,0,0.8-0.1c0,0,0,0,0,0c0,0,0,0,0,0
		c0.4,0.3,0.8,0.6,1.2,0.8c0.4,0.2,0.8,0.5,1.1,0.6c0.3,0.9,0.6,1.7,0.7,2.6C24.6,37.2,24.5,37.7,24.2,38.1z M13.7,33.7
		c-0.5,0-0.8-0.1-1-0.4c-0.3-0.5-0.1-1.5,0.5-2.7c0.1-0.2,0.1-0.4,0-0.5c-0.4-0.8-0.6-1.5-0.6-2.1c0-0.5,0.3-0.9,0.9-1c0,0,0,0,0,0
		c0.9-0.1,2.5,0.4,4.2,1.7c-0.2,0.2-0.3,0.4-0.4,0.6c0,0-0.1,0.3-0.1,0.3c-0.8-0.2-1.9-0.4-3.1-0.2c-0.3,0-0.5,0.3-0.5,0.7
		c0,0.3,0.3,0.5,0.7,0.5c1.2-0.2,2.2,0,2.8,0.2c0,0.2,0.1,0.5,0.2,0.7c0,0,0,0,0,0c0.1,0.2,0.2,0.4,0.4,0.6c-0.7,0.5-1.4,0.9-2,1.2
		c0,0,0,0,0,0C14.6,33.6,13.9,33.7,13.7,33.7z M18.1,30.3c0-0.7,0.6-1.3,1.3-1.3c0,0,1.2,0,1.2,0c0.7,0,1.3,0.6,1.3,1.3
		c0,0.6-0.5,1.2-1,1.3c-0.1,0-0.2,0-0.3,0h-1.2C18.7,31.6,18.1,31,18.1,30.3C18.1,30.3,18.1,30.3,18.1,30.3
		C18.1,30.3,18.1,30.3,18.1,30.3z M36.2,11.7c0.4-1.1,0.3-2.2-0.3-3.2c-0.7-1.1-1.9-1.8-3.2-1.8c-0.5,0-0.9,0.1-1.3,0.3
		c-0.6-0.5-1.3-0.8-2-0.8c-0.1-0.7-0.4-1.4-1-1.9c0.2-0.9,0-1.7-0.5-2.4c-0.6-0.8-1.6-1.3-2.6-1.3c-0.5,0-1,0.1-1.5,0.4
		c-0.5-0.3-1-0.4-1.5-0.4c-0.9,0-1.7,0.4-2.3,1c-0.6-0.6-1.4-1-2.3-1c-0.5,0-1,0.1-1.5,0.4c-0.5-0.3-1-0.4-1.5-0.4
		c-1,0-2,0.5-2.6,1.3c-0.5,0.7-0.7,1.6-0.5,2.4c-0.6,0.5-0.9,1.2-1,1.9C9.9,6.2,9.3,6.5,8.7,7C8.2,6.8,7.8,6.7,7.3,6.7
		c-1.3,0-2.5,0.7-3.2,1.8c-0.6,1-0.7,2.2-0.3,3.2c-0.9,1.1-1.1,2.5-0.5,3.7C3.6,16.1,4,16.6,4.5,17c0.4,1.7,1,3.2,1.7,4.7
		C6.4,22,6.8,22.1,7,22c0.3-0.1,0.4-0.5,0.3-0.8c-0.5-1.1-1-2.3-1.4-3.5c0.3,0.1,0.5,0.1,0.8,0.1c0,0,0.1,0,0.2,0c0,0,0,0,0,0
		c0.4,0.6,0.9,1,1.5,1.3c1.9,0.9,4.2-0.1,5-2c0-0.1,0.1-0.3,0.1-0.4c0.3-0.1,0.6-0.2,0.9-0.4c0,0,0,0,0,0c-0.1,0.5-0.1,1,0.1,1.5
		c0.3,1,1,1.9,2,2.4c1.1,0.5,2.4,0.5,3.4-0.1c0,0,0,0,0,0c0,0,0,0,0,0c0,0,0.1,0.1,0.2,0.1c0.5,0.2,1,0.4,1.5,0.4
		c1.7,0.1,3.3-1.1,3.8-2.7c0,0,0,0,0,0c0.1-0.5,0.1-1,0.1-1.5c0,0,0,0,0-0.1c0,0,0,0,0.1,0c0.3,0.2,0.6,0.3,0.9,0.4
		c0,0.1,0.1,0.3,0.1,0.4c0.5,1.3,1.7,2.2,3.2,2.3c1.3,0.1,2.5-0.5,3.2-1.5c0-0.1,0.1-0.1,0.1-0.2c0.1,0,0.1,0,0.2,0
		c0.3,0,0.5,0,0.8-0.1c-1.5,5-4,7.8-5.7,9.2c0-0.1-0.1-0.1-0.1-0.2c-0.4-0.7-1.2-1-2-1c-1.4,0-3.2,0.8-4.9,2.2c0,0,0,0,0,0
		c0,0,0,0,0,0c-0.3-0.1-0.5-0.1-0.8-0.1h-1.2c-0.3,0-0.5,0-0.8,0.1c0,0,0,0,0,0c0,0,0,0,0,0c-1.7-1.4-3.5-2.2-4.9-2.2
		c-0.8,0-1.7,0.4-2.1,1.1c-1.2-1-2.2-2.2-3.2-3.7c-0.2-0.3-0.5-0.3-0.8-0.2c-0.3,0.2-0.3,0.5-0.2,0.8c1.1,1.8,2.4,3.2,3.9,4.3
		c0,0.7,0.3,1.5,0.6,2.1c-0.5,1.1-0.9,2.5-0.3,3.6c0.4,0.6,1.1,1,2,1c0.4,0,0.8-0.1,1.2-0.2c-0.2,0.6-0.4,1.2-0.5,1.8
		c-0.2,0.8,0,1.7,0.6,2.3c0.5,0.7,1.3,1,2.2,1h5.7c0.8,0,1.6-0.4,2.2-1c0.5-0.7,0.7-1.5,0.6-2.3c-0.1-0.6-0.3-1.2-0.5-1.8
		c0.4,0.1,0.8,0.2,1.2,0.2c0.9,0,1.6-0.3,2-1c0.6-1,0.2-2.4-0.3-3.6c0.3-0.6,0.6-1.4,0.6-2.1c1.8-1.4,3.4-3.3,4.7-5.6
		c1.1-2.1,1.8-4.1,2.2-5.5c0.5-0.4,0.9-0.9,1.2-1.6C37.3,14.2,37.1,12.8,36.2,11.7z"/>
</g>
</svg>
