<?xml version="1.0" encoding="utf-8"?>
<!-- Generator: Adobe Illustrator 23.1.0, SVG Export Plug-In . SVG Version: 6.00 Build 0)  -->
<svg version="1.1" id="Layer_1" xmlns="http://www.w3.org/2000/svg" xmlns:xlink="http://www.w3.org/1999/xlink" x="0px" y="0px"
	 viewBox="0 0 40 40" style="enable-background:new 0 0 40 40;" xml:space="preserve">
<style type="text/css">
	.st0{fill:#92B8C0;}
</style>
<g>
	<path class="st0" d="M35.4,37.2H7.9c-0.1,0-0.2-0.1-0.2-0.2v-0.5c0-0.1,0.1-0.2,0.2-0.2h18.8c0.3,0,0.5-0.2,0.5-0.5
		c0-0.3-0.2-0.5-0.5-0.5H9.8v-6.5v-0.2c0-0.3,0.3-0.6,0.6-0.6h22.6c0.3,0,0.6,0.3,0.6,0.6v6.7h-4.3c-0.3,0-0.5,0.2-0.5,0.5
		c0,0.3,0.2,0.5,0.5,0.5h6.2c0.1,0,0.2,0.1,0.2,0.2V37h0C35.6,37.1,35.5,37.2,35.4,37.2z M8.7,32.6l-0.1,0l-0.1,0
		c-0.1,0-0.2,0-0.3,0c-0.2,0-0.3,0-0.5-0.1c-0.7-0.2-1.3-0.6-1.6-1.2c-0.3-0.4-0.9-3-1.2-4.2c-0.3-1.5-0.3-2.8-0.1-3.9
		c0.4-1.7,1.7-3.4,3.5-4.7c1.3-0.9,2.8-1.5,3.9-2c0.6-0.2,1.2-0.4,1.8-0.6c0.7-0.2,1.5-0.5,2.2-0.8c2.4-1.1,4.6-2.6,6.4-4.5
		c1.5-1.5,2.7-3.2,3.6-5.1l4,16.2c-4.2-3-9.5-4.4-14.7-3.7c-1.8,0.2-4,1-5.9,2c-1.9,1-3.2,2.6-3.6,4.3c-0.3,1.5,0.3,5.8,0.6,6.4
		c0.4,1.1,1.3,1.4,2,1.4V32.6z M26.9,2.4c0.1-0.2,0.3-0.3,0.5-0.3l0,0c0.1,0,0.1,0,0.2,0c0.3,0,0.7,0.2,0.7,0.6l5.1,20.6
		c0,0.2,0,0.4-0.1,0.6c-0.1,0.2-0.3,0.3-0.5,0.3l0,0c-0.4,0.1-0.8-0.2-0.9-0.6L31.7,23v0L26.9,3.7c0,0,0,0,0,0L26.8,3
		C26.7,2.8,26.7,2.6,26.9,2.4z M35.4,35.3h-0.8v-6.7c0-0.9-0.8-1.7-1.7-1.7h-1.2c0-1.2-1-2.1-2.1-2.1H22v-0.9c0-0.3-0.2-0.5-0.5-0.5
		c-0.3,0-0.5,0.2-0.5,0.5v0.9h-3.2c-0.3,0-0.5,0.2-0.5,0.5c0,0.3,0.2,0.5,0.5,0.5h11.8c0.6,0,1,0.4,1.1,1h-18c0-0.6,0.5-1,1.1-1h1.6
		c0.3,0,0.5-0.2,0.5-0.5c0-0.3-0.2-0.5-0.5-0.5h-1.6c-1.2,0-2.1,0.9-2.1,2.1h-1.2c-0.9,0-1.7,0.8-1.7,1.7V31c-0.5-0.1-0.8-0.3-1-0.7
		c-0.2-0.5-0.8-4.5-0.5-5.8c0.3-1.4,1.4-2.7,3-3.5c1.7-0.9,3.9-1.6,5.6-1.9c5.4-0.7,10.8,0.9,14.9,4.3l0.1,0.4
		c0.2,0.8,1,1.4,1.8,1.4c0.1,0,0.3,0,0.4,0l0,0c0.5-0.1,0.9-0.4,1.2-0.8c0.3-0.4,0.3-0.9,0.2-1.4L29.3,2.4c-0.2-1-1.2-1.6-2.2-1.4
		l0,0c-0.5,0.1-0.9,0.4-1.2,0.8c-0.3,0.4-0.3,0.9-0.2,1.4l0.1,0.5c-0.9,2.3-2.3,4.3-4,6.1c-1.7,1.8-3.8,3.2-6,4.3
		c-0.7,0.3-1.4,0.5-2.1,0.8c-0.6,0.2-1.2,0.4-1.8,0.6c-1.2,0.5-2.7,1.2-4.1,2.1C5.7,19.1,4.3,21,3.9,23c-0.3,1.2-0.3,2.7,0,4.3
		c0,0,0.8,3.8,1.3,4.6c0.5,0.8,1.3,1.4,2.3,1.7c0.2,0.1,0.5,0.1,0.7,0.1c0.1,0,0.2,0,0.4,0l0.1,0c0,0,0,0,0,0c0,0,0,0,0,0l0.1,0v1.5
		H7.9c-0.7,0-1.2,0.6-1.2,1.2V37c0,0.7,0.6,1.2,1.2,1.2h27.5c0.7,0,1.2-0.6,1.2-1.2v-0.5C36.6,35.8,36.1,35.3,35.4,35.3z"/>
	<path class="st0" d="M21.5,33.5c-0.6-0.3-2.2-1.1-2.2-2.4c0-0.5,0.4-1,1-1c0.3,0,0.6,0.1,0.8,0.4c0.1,0.1,0.3,0.2,0.4,0.2
		s0.3-0.1,0.4-0.2c0.2-0.2,0.5-0.4,0.8-0.4c0.5,0,1,0.4,1,1C23.7,32.2,22.2,33.1,21.5,33.5z M22.7,29c-0.4,0-0.9,0.1-1.2,0.4
		c-0.3-0.2-0.8-0.4-1.2-0.4c-1.1,0-2.1,0.9-2.1,2.1c0,2.3,2.9,3.4,3.1,3.5c0.1,0,0.1,0,0.2,0c0.1,0,0.1,0,0.2,0
		c0.1,0,3.1-1.2,3.1-3.5C24.8,30,23.8,29,22.7,29z"/>
</g>
</svg>
