<?xml version="1.0" encoding="utf-8"?>
<!-- Generator: Adobe Illustrator 16.0.0, SVG Export Plug-In . SVG Version: 6.00 Build 0)  -->
<!DOCTYPE svg PUBLIC "-//W3C//DTD SVG 1.1//EN" "http://www.w3.org/Graphics/SVG/1.1/DTD/svg11.dtd">
<svg version="1.1" id="Layer_1" xmlns="http://www.w3.org/2000/svg" xmlns:xlink="http://www.w3.org/1999/xlink" x="0px" y="0px"
	 width="51px" height="50px" viewBox="0 0 51 50" enable-background="new 0 0 51 50" xml:space="preserve">
<g>
	<path fill-rule="evenodd" clip-rule="evenodd" fill="#FFFFFF" d="M26.476,42.767c0,1.5,0,2.934,0,4.367
		c0,0.107-0.003,0.216,0.003,0.324c0.013,0.304-0.11,0.535-0.387,0.655c-0.291,0.124-0.551,0.05-0.775-0.179
		c-0.891-0.909-1.787-1.814-2.68-2.721c-0.713-0.724-1.432-1.441-2.133-2.176c-0.194-0.203-0.394-0.279-0.673-0.278
		c-2.856,0.009-5.715,0.007-8.571,0.005c-0.721,0-0.908-0.195-0.908-0.921c0.001-6.391,0.005-12.784-0.007-19.176
		c-0.001-0.439,0.145-0.727,0.487-0.994c4.717-3.683,9.425-7.377,14.136-11.068c0.608-0.478,0.749-0.475,1.329,0.019
		c4.338,3.697,8.674,7.397,13.019,11.089c0.292,0.249,0.427,0.514,0.427,0.904c-0.01,6.419-0.007,12.838-0.008,19.258
		c0,0.689-0.201,0.889-0.897,0.889c-3.941,0.001-7.882,0.001-11.823,0.001C26.854,42.767,26.693,42.767,26.476,42.767z
		 M25.623,11.767c-0.117,0.084-0.194,0.138-0.269,0.196c-4.434,3.476-8.864,6.953-13.303,10.421
		c-0.279,0.218-0.404,0.438-0.403,0.803c0.012,5.946,0.008,11.892,0.01,17.837c0,0.132,0.012,0.263,0.019,0.402
		c2.728,0,5.425,0,8.152,0c0-1.307-0.001-2.578,0-3.851c0.004-3.48,0.009-6.961,0.013-10.441c0.002-0.972,0.144-1.103,1.088-1.101
		c2.788,0.007,5.576,0.006,8.364-0.002c0.756-0.002,0.962,0.184,0.963,0.954c0.002,1.34,0,2.682,0.001,4.022
		c0,0.142,0.013,0.282,0.021,0.495c0.39-0.271,0.721-0.497,1.047-0.729c0.398-0.287,0.819-0.354,1.26-0.125
		c0.439,0.228,0.637,0.606,0.628,1.098c-0.004,0.236,0,0.472,0,0.734c0.314-0.025,0.557-0.043,0.799-0.066
		c0.728-0.072,1.454-0.156,2.182-0.219c0.603-0.051,0.844,0.182,0.846,0.795c0.004,0.962,0.005,1.924,0,2.884
		c-0.003,0.57-0.28,0.832-0.831,0.779c-0.85-0.084-1.696-0.18-2.545-0.267c-0.14-0.013-0.283-0.002-0.451-0.002
		c0,0.236-0.007,0.438,0.002,0.639c0.02,0.521-0.163,0.937-0.641,1.174c-0.475,0.237-0.916,0.125-1.329-0.184
		c-0.298-0.224-0.606-0.433-0.965-0.687c0,1.414,0,2.748,0,4.102c2.721,0,5.419,0,8.147,0c0-0.164,0-0.3,0-0.433
		c0.002-5.974-0.002-11.946,0.01-17.918c0.001-0.31-0.113-0.494-0.334-0.681c-2.89-2.455-5.773-4.917-8.659-7.375
		C28.179,13.942,26.911,12.863,25.623,11.767z M25.162,45.743c0.001-0.017,0.013-0.092,0.013-0.169
		c0.001-4.51,0.004-9.019-0.008-13.529c0-0.16-0.109-0.36-0.231-0.472c-1.169-1.068-2.352-2.123-3.532-3.179
		c-0.063-0.058-0.14-0.1-0.25-0.178c-0.009,0.187-0.02,0.318-0.02,0.45c0,4.063,0.02,8.126-0.018,12.188
		c-0.007,0.714,0.187,1.214,0.705,1.688C22.959,43.584,24.053,44.675,25.162,45.743z M22.248,27.355
		c0.059,0.081,0.08,0.128,0.116,0.16c1.222,1.092,2.437,2.19,3.672,3.264c0.327,0.285,0.449,0.593,0.447,1.022
		c-0.013,3.046-0.007,6.094-0.007,9.141c0,0.156,0,0.313,0,0.483c0.849,0,1.641,0,2.441,0c0.015-0.075,0.034-0.127,0.034-0.178
		c0.002-1.544,0.01-3.088-0.005-4.633c-0.001-0.131-0.112-0.299-0.224-0.386c-0.385-0.298-0.798-0.56-1.188-0.85
		c-0.7-0.521-0.697-1.4,0.004-1.923c0.368-0.276,0.741-0.547,1.127-0.798c0.218-0.14,0.3-0.302,0.297-0.563
		c-0.012-1.477-0.004-2.953-0.006-4.429c0-0.103-0.023-0.206-0.036-0.312C26.69,27.355,24.493,27.355,22.248,27.355z M31.909,36.875
		c0-0.466-0.008-0.827,0.002-1.188c0.012-0.494,0.282-0.744,0.776-0.71c0.392,0.028,0.78,0.081,1.171,0.121
		c0.612,0.062,1.225,0.12,1.852,0.181c0-0.594,0-1.139,0-1.723c-1.002,0.1-1.968,0.202-2.936,0.293
		c-0.602,0.058-0.857-0.178-0.865-0.774c-0.004-0.342-0.001-0.683-0.001-1.112c-1.2,0.85-2.31,1.634-3.471,2.456
		C29.597,35.238,30.705,36.023,31.909,36.875z"/>
	<path fill-rule="evenodd" clip-rule="evenodd" fill="#FFFFFF" d="M25.617,8.521c-0.913,0.742-1.815,1.475-2.716,2.209
		c-5.019,4.09-10.036,8.18-15.053,12.273c-0.255,0.208-0.514,0.365-0.848,0.216c-0.358-0.161-0.391-0.479-0.385-0.822
		c0.063-3.542,1.439-6.471,4.174-8.717c4.739-3.895,9.508-7.756,14.265-11.631c0.456-0.371,0.7-0.376,1.143-0.007
		c4.778,3.978,9.571,7.938,14.325,11.942c2.623,2.209,3.872,5.086,3.861,8.513c-0.001,0.338-0.018,0.66-0.378,0.825
		c-0.356,0.163-0.62-0.02-0.88-0.236c-3.215-2.68-6.43-5.359-9.646-8.038c-2.508-2.089-5.017-4.177-7.526-6.265
		C25.85,8.699,25.742,8.619,25.617,8.521z M42.981,21.26c0.009-0.122,0.018-0.162,0.015-0.201c-0.01-0.108-0.021-0.216-0.038-0.323
		c-0.398-2.304-1.465-4.24-3.257-5.742c-4.163-3.488-8.343-6.956-12.516-10.431c-0.517-0.43-1.033-0.859-1.546-1.285
		c-0.098,0.07-0.154,0.107-0.207,0.15c-4.66,3.799-9.327,7.591-13.98,11.4c-1.405,1.15-2.39,2.615-2.976,4.332
		c-0.211,0.618-0.337,1.264-0.502,1.897c0.036,0.019,0.074,0.038,0.11,0.057c0.166-0.133,0.332-0.266,0.497-0.4
		c5.479-4.466,10.961-8.933,16.441-13.397C25.536,6.9,25.734,6.9,26.228,7.311c4.455,3.709,8.909,7.418,13.363,11.127
		C40.702,19.363,41.814,20.289,42.981,21.26z"/>
</g>
<g>
	<path fill-rule="evenodd" clip-rule="evenodd" fill="#FFFFFF" d="M-20.907,41.136c0-1.123,0-2.244,0-3.41
		c-3.699-0.407-6.566-2.159-8.418-5.424c-1.274-2.25-1.625-4.682-1.101-7.21c1.063-5.129,5.706-8.673,10.922-8.369
		c5.229,0.305,9.382,4.383,9.848,9.708c0.161,1.859-0.191,3.643-1.002,5.327c-0.816,1.698-2.008,3.083-3.563,4.148
		c-1.545,1.054-3.256,1.638-5.136,1.796c0,3.012,0,5.99,0,9.002c0.721,0,1.444,0,2.225,0c0-0.575-0.002-1.147,0-1.722
		c0.011-1.625,1.12-2.739,2.742-2.747c0.327-0.003,0.66-0.02,0.982,0.024c1.306,0.178,2.251,1.252,2.277,2.575
		c0.014,0.609,0.002,1.219,0.002,1.903c0.603,0,1.188-0.001,1.774,0c0.189,0,0.381-0.019,0.563,0.012
		c0.406,0.064,0.65,0.317,0.656,0.731c0.005,0.412-0.238,0.666-0.64,0.744c-0.151,0.029-0.313,0.014-0.468,0.014
		c-14.762,0.001-29.525,0.001-44.288,0.001c-0.774,0-1.127-0.23-1.135-0.739c-0.01-0.523,0.354-0.763,1.156-0.763
		c1.453,0,2.908,0,4.363,0c0.168,0,0.338,0,0.527,0c0.246-1.374,0.865-2.498,1.938-3.354c0.924-0.736,1.98-1.128,3.158-1.145
		c1.357-0.02,2.714-0.004,4.041-0.004c0.307-0.476,0.576-1.014,0.953-1.457c1.213-1.426,3.148-1.911,4.9-1.281
		c1.762,0.636,2.945,2.278,2.977,4.154c0.018,1.013,0.003,2.025,0.003,3.063c3.261,0,6.476,0,9.723,0
		c0.012-0.097,0.037-0.2,0.037-0.303c0.004-1.096-0.005-2.191,0.008-3.285c0.002-0.259-0.058-0.418-0.33-0.462
		c-0.091-0.015-0.184-0.044-0.266-0.087c-0.408-0.215-0.687-0.154-1.026,0.227c-0.938,1.057-2.521,1.221-3.728,0.472
		c-1.188-0.737-1.706-2.188-1.255-3.514c0.456-1.344,1.773-2.181,3.184-2.025c1.389,0.155,2.505,1.286,2.652,2.689
		C-21.587,41.019-21.587,41.019-20.907,41.136z M-19.368,36.167c4.72-0.227,8.503-4.609,8.229-9.485
		c-0.276-4.955-4.599-8.77-9.585-8.457c-4.955,0.311-8.769,4.681-8.403,9.635c0.325,4.414,4.466,8.584,8.242,8.267
		c0-0.168,0-0.338,0-0.508c0-1.986-0.003-3.972,0.001-5.958c0-0.593,0.279-0.935,0.748-0.936c0.469,0,0.748,0.344,0.751,0.936
		c0.002,0.602,0,1.204,0,1.848c0.688-0.168,1.308-0.321,1.929-0.472c0.541-0.132,0.936,0.051,1.056,0.484
		c0.124,0.447-0.141,0.817-0.702,0.964c-0.752,0.197-1.505,0.388-2.266,0.582C-19.368,34.105-19.368,35.118-19.368,36.167z
		 M-47.043,46.707c4.979,0,9.924,0,14.886,0c0-1.107,0.06-2.189-0.013-3.259c-0.125-1.806-1.89-3.059-3.646-2.634
		c-1.262,0.305-2.011,1.128-2.287,2.394c-0.154,0.713-0.479,0.895-1.18,0.708c-0.285-0.076-0.58-0.161-0.871-0.165
		c-1.171-0.019-2.345-0.047-3.515,0.002C-45.324,43.821-46.8,45.138-47.043,46.707z M-12.627,46.722c0-0.184,0-0.323,0-0.46
		c-0.002-0.484,0.017-0.968-0.009-1.45c-0.034-0.625-0.494-1.043-1.138-1.074c-1.153-0.054-1.752,0.216-1.823,0.928
		c-0.069,0.674-0.015,1.359-0.015,2.057C-14.612,46.722-13.651,46.722-12.627,46.722z M-23.25,40.39
		c-0.104-0.638-0.589-1.074-1.218-1.147c-0.668-0.079-1.322,0.32-1.564,0.95c-0.245,0.638-0.028,1.358,0.525,1.753
		c0.56,0.398,1.224,0.376,1.801-0.097c-0.358-0.127-0.694-0.241-1.027-0.359c-0.521-0.183-0.758-0.562-0.617-0.981
		c0.147-0.437,0.547-0.604,1.07-0.441C-23.943,40.17-23.607,40.277-23.25,40.39z"/>
	<path fill-rule="evenodd" clip-rule="evenodd" fill="#FFFFFF" d="M-24.172,12.955c-1.673,0-3.346,0.019-5.016-0.005
		c-2.563-0.036-4.543-2.136-4.454-4.686c0.091-2.606,2.472-4.616,5.062-4.291c0.156,0.02,0.39-0.074,0.49-0.196
		c1.398-1.697,3.184-2.418,5.328-1.944c2.167,0.477,3.481,1.902,4.033,4.048c0.038,0.149,0.213,0.337,0.357,0.373
		c1.796,0.452,2.911,1.94,2.727,3.669c-0.188,1.771-1.639,3.025-3.513,3.031C-20.828,12.959-22.501,12.956-24.172,12.955
		C-24.172,12.956-24.172,12.955-24.172,12.955z M-24.145,11.453c0,0,0,0.001,0,0.001c1.688,0,3.377,0.006,5.064-0.002
		c1.13-0.006,1.961-0.829,1.946-1.904c-0.015-1.073-0.877-1.864-2.005-1.842c-0.748,0.014-0.948-0.188-1.005-0.954
		c-0.092-1.284-0.672-2.298-1.765-2.985c-1.798-1.128-4.113-0.546-5.219,1.289c-0.367,0.612-0.52,0.669-1.225,0.501
		c-0.228-0.054-0.461-0.096-0.693-0.103c-1.67-0.051-3.064,1.264-3.1,2.915c-0.035,1.671,1.264,3.055,2.937,3.078
		C-27.521,11.471-25.832,11.453-24.145,11.453z"/>
	<path fill-rule="evenodd" clip-rule="evenodd" fill="#FFFFFF" d="M-47.924,14.586c0.869-0.43,1.616-0.888,2.424-1.174
		c0.829-0.295,1.667-0.111,2.419,0.37c0.415,0.267,0.538,0.659,0.329,1.037c-0.215,0.394-0.642,0.509-1.087,0.245
		c-0.649-0.386-1.306-0.363-1.906,0.022c-0.518,0.333-0.999,0.745-1.433,1.187c-0.59,0.601-1.064,0.588-1.487-0.124
		c-0.71-1.194-1.692-1.571-3.024-1.159c-0.119,0.037-0.234,0.083-0.353,0.125c-0.509,0.177-0.919,0.017-1.076-0.419
		c-0.146-0.405,0.061-0.776,0.548-0.986c1.699-0.738,3.336-0.43,4.641,0.874C-47.897,14.614-47.856,14.637-47.924,14.586z"/>
	<path fill-rule="evenodd" clip-rule="evenodd" fill="#FFFFFF" d="M-38.864,20.312c0.857,0.054,1.675,0.028,2.46,0.176
		c0.992,0.188,1.697,0.828,2.104,1.765c0.168,0.384,0.029,0.792-0.322,0.959c-0.369,0.175-0.758,0.136-0.949-0.229
		c-0.666-1.282-1.769-1.265-2.949-1.054c-0.275,0.049-0.541,0.148-0.813,0.213c-0.591,0.142-0.985-0.165-0.999-0.769
		c-0.041-1.766-0.582-2.426-2.303-2.819c-0.521-0.12-0.798-0.442-0.736-0.86c0.068-0.459,0.424-0.686,0.98-0.62
		C-40.571,17.287-39.293,18.478-38.864,20.312z"/>
	<path fill-rule="evenodd" clip-rule="evenodd" fill="#FFFFFF" d="M-48.211,21.356c0.313-0.554,0.551-1.084,0.886-1.545
		c0.437-0.603,1.085-0.875,1.827-0.897c0.431-0.014,0.742,0.25,0.79,0.64c0.053,0.428-0.181,0.785-0.63,0.826
		c-0.686,0.063-1.027,0.475-1.213,1.066c-0.102,0.325-0.16,0.666-0.219,1.003c-0.107,0.603-0.527,0.854-1.087,0.639
		c-1.147-0.442-1.606-0.311-2.32,0.662c-0.289,0.395-0.695,0.498-1.056,0.27c-0.378-0.241-0.449-0.673-0.182-1.108
		C-50.697,21.743-49.622,21.231-48.211,21.356z"/>
</g>
</svg>
