<svg id="information" xmlns="http://www.w3.org/2000/svg" width="20.063" height="20.063" viewBox="0 0 20.063 20.063">
  <g id="Group_326" data-name="Group 326">
    <g id="Group_325" data-name="Group 325">
      <path id="Path_290" data-name="Path 290" d="M10.031,0A10.031,10.031,0,1,0,20.062,10.031,10.026,10.026,0,0,0,10.031,0Zm0,18.5A8.464,8.464,0,1,1,18.5,10.031,8.459,8.459,0,0,1,10.031,18.5Z" fill="#fff"/>
    </g>
  </g>
  <g id="Group_328" data-name="Group 328" transform="translate(9.248 8.398)">
    <g id="Group_327" data-name="Group 327">
      <path id="Path_291" data-name="Path 291" d="M236.784,214.33a.784.784,0,0,0-.784.784v5.047a.784.784,0,0,0,1.567,0v-5.047A.784.784,0,0,0,236.784,214.33Z" transform="translate(-236 -214.33)" fill="#fff"/>
    </g>
  </g>
  <g id="Group_330" data-name="Group 330" transform="translate(8.973 5.323)">
    <g id="Group_329" data-name="Group 329">
      <circle id="Ellipse_8" data-name="Ellipse 8" cx="1.058" cy="1.058" r="1.058" fill="#fff"/>
    </g>
  </g>
</svg>
