<svg xmlns="http://www.w3.org/2000/svg" width="23.22" height="21.816" viewBox="0 0 23.22 21.816">
  <g id="transfer" transform="translate(11.476 26.638) rotate(-133)">
    <path id="Path_301" data-name="Path 301" d="M12.767,22.533H6.451A.451.451,0,0,1,6,22.082V15.767a.452.452,0,0,1,.77-.319l1.936,1.937,4.643-4.643a2.1,2.1,0,0,0,0-2.97.454.454,0,0,1,0-.64.451.451,0,0,1,.638,0l1.056,1.056a4.064,4.064,0,0,1,0,5.742l-3.895,3.9,1.936,1.936a.452.452,0,0,1-.318.77Zm-5.864-.9h4.775l-1.485-1.485a.451.451,0,0,1,0-.638l4.214-4.214a3.164,3.164,0,0,0,.456-3.89,2.992,2.992,0,0,1-.874,1.976L9.026,18.341a.451.451,0,0,1-.638,0L6.9,16.856Z" transform="translate(0 -0.88)" fill="#fff"/>
    <path id="Path_302" data-name="Path 302" d="M9.222,13.533A.453.453,0,0,1,8.9,13.4L7.846,12.345a4.064,4.064,0,0,1,0-5.742l3.9-3.9L9.806.77A.451.451,0,0,1,10.124,0H16.44a.451.451,0,0,1,.451.451V6.767a.452.452,0,0,1-.77.319L14.184,5.149,9.542,9.792a2.1,2.1,0,0,0,0,2.97.454.454,0,0,1,0,.64A.448.448,0,0,1,9.222,13.533ZM11.213.9,12.7,2.387a.451.451,0,0,1,0,.638L8.484,7.24a3.164,3.164,0,0,0-.456,3.89A2.992,2.992,0,0,1,8.9,9.155l4.962-4.962a.451.451,0,0,1,.638,0l1.486,1.485V.9Z" transform="translate(-0.064)" fill="#fff"/>
  </g>
</svg>
