<svg id="_033-browser" data-name="033-browser" xmlns="http://www.w3.org/2000/svg" width="30" height="30" viewBox="0 0 30 30">
  <g id="Group_55" data-name="Group 55" transform="translate(2.083 9.263)">
    <g id="Group_54" data-name="Group 54">
      <path id="Path_48" data-name="Path 48" d="M67.984,145.067h-24.8a.475.475,0,0,0-.517.417V153.4a.475.475,0,0,0,.517.417h24.8a.475.475,0,0,0,.517-.417v-7.917A.475.475,0,0,0,67.984,145.067Zm-.517,7.917H43.7V145.9H67.467v7.083Z" transform="translate(-42.667 -145.067)" fill="#92b8c0"/>
    </g>
  </g>
  <g id="Group_57" data-name="Group 57" transform="translate(10.185 13.75)">
    <g id="Group_56" data-name="Group 56">
      <path id="Path_49" data-name="Path 49" d="M173.042,230.519a.416.416,0,0,0-.589,0l-1.667,1.667a.417.417,0,1,0,.589.589l1.667-1.667A.416.416,0,0,0,173.042,230.519Z" transform="translate(-170.664 -230.397)" fill="#92b8c0"/>
    </g>
  </g>
  <g id="Group_59" data-name="Group 59" transform="translate(12.222 13.75)">
    <g id="Group_58" data-name="Group 58">
      <path id="Path_50" data-name="Path 50" d="M207.175,232.186l-1.667-1.667a.417.417,0,1,0-.589.589l1.667,1.667a.417.417,0,0,0,.589-.589Z" transform="translate(-204.797 -230.397)" fill="#92b8c0"/>
    </g>
  </g>
  <g id="Group_61" data-name="Group 61" transform="translate(13.241 12.731)">
    <g id="Group_60" data-name="Group 60">
      <path id="Path_51" data-name="Path 51" d="M224.242,213.453a.416.416,0,0,0-.589,0l-1.667,1.667a.417.417,0,1,0,.589.589l1.667-1.667A.416.416,0,0,0,224.242,213.453Z" transform="translate(-221.864 -213.331)" fill="#92b8c0"/>
    </g>
  </g>
  <g id="Group_63" data-name="Group 63" transform="translate(15.278 12.731)">
    <g id="Group_62" data-name="Group 62">
      <path id="Path_52" data-name="Path 52" d="M258.377,215.12l-1.667-1.667a.417.417,0,0,0-.589.589l1.667,1.667a.417.417,0,1,0,.589-.589Z" transform="translate(-255.999 -213.331)" fill="#92b8c0"/>
    </g>
  </g>
  <g id="Group_65" data-name="Group 65">
    <g id="Group_64" data-name="Group 64">
      <path id="Path_53" data-name="Path 53" d="M27.75,0H2.25A2.253,2.253,0,0,0,0,2.25v25.5A2.253,2.253,0,0,0,2.25,30h25.5A2.253,2.253,0,0,0,30,27.75V2.25A2.253,2.253,0,0,0,27.75,0ZM29,27.75A1.251,1.251,0,0,1,27.75,29H2.25A1.251,1.251,0,0,1,1,27.75V2.25A1.251,1.251,0,0,1,2.25,1h25.5A1.251,1.251,0,0,1,29,2.25Z" fill="#92b8c0"/>
    </g>
  </g>
  <g id="Group_67" data-name="Group 67" transform="translate(1.667 1.667)">
    <g id="Group_66" data-name="Group 66">
      <path id="Path_54" data-name="Path 54" d="M36.217,34.133H34.551a.417.417,0,0,0-.417.417v1.667a.417.417,0,0,0,.417.417h1.667a.417.417,0,0,0,.417-.417V34.55A.417.417,0,0,0,36.217,34.133ZM35.8,35.8h-.833v-.833H35.8Z" transform="translate(-34.134 -34.133)" fill="#92b8c0"/>
    </g>
  </g>
  <g id="Group_69" data-name="Group 69" transform="translate(6.111 1.667)">
    <g id="Group_68" data-name="Group 68">
      <path id="Path_55" data-name="Path 55" d="M104.484,34.133h-1.667a.417.417,0,0,0-.417.417v1.667a.417.417,0,0,0,.417.417h1.667a.417.417,0,0,0,.417-.417V34.55A.417.417,0,0,0,104.484,34.133Zm-.417,1.667h-.833v-.833h.833Z" transform="translate(-102.401 -34.133)" fill="#92b8c0"/>
    </g>
  </g>
  <g id="Group_71" data-name="Group 71" transform="translate(10.185 1.667)">
    <g id="Group_70" data-name="Group 70">
      <path id="Path_56" data-name="Path 56" d="M172.75,34.133h-1.667a.417.417,0,0,0-.417.417v1.667a.417.417,0,0,0,.417.417h1.667a.417.417,0,0,0,.417-.417V34.55A.416.416,0,0,0,172.75,34.133Zm-.417,1.667H171.5v-.833h.833Z" transform="translate(-170.667 -34.133)" fill="#92b8c0"/>
    </g>
  </g>
  <g id="Group_73" data-name="Group 73" transform="translate(18.333 10.694)">
    <g id="Group_72" data-name="Group 72">
      <path id="Path_57" data-name="Path 57" d="M308.857,179.2h-.814a.844.844,0,0,0-.843.843v.815a.844.844,0,0,0,.843.842h.814a.844.844,0,0,0,.843-.843v-.815A.844.844,0,0,0,308.857,179.2Zm.01,1.658a.01.01,0,0,1-.01.009l-.824-.009.01-.824.824.01Z" transform="translate(-307.2 -179.2)" fill="#92b8c0"/>
    </g>
  </g>
  <g id="Group_75" data-name="Group 75">
    <g id="Group_74" data-name="Group 74">
      <path id="Path_58" data-name="Path 58" d="M27.75,0H2.25A2.091,2.091,0,0,0,0,1.875V5.417a.464.464,0,0,0,.5.417h29a.464.464,0,0,0,.5-.417V1.875A2.091,2.091,0,0,0,27.75,0ZM29,5H1V1.875A1.161,1.161,0,0,1,2.25.833h25.5A1.162,1.162,0,0,1,29,1.875Z" fill="#92b8c0"/>
    </g>
  </g>
  <g id="Group_77" data-name="Group 77" transform="translate(2.083 20.618)">
    <g id="Group_76" data-name="Group 76">
      <path id="Path_59" data-name="Path 59" d="M58.084,349.867h-15a.417.417,0,0,0,0,.833h15a.417.417,0,1,0,0-.833Z" transform="translate(-42.667 -349.867)" fill="#92b8c0"/>
    </g>
  </g>
  <g id="Group_79" data-name="Group 79" transform="translate(24.167 20.618)">
    <g id="Group_78" data-name="Group 78">
      <path id="Path_60" data-name="Path 60" d="M395.867,349.867h-2.917a.417.417,0,1,0,0,.833h2.917a.417.417,0,0,0,0-.833Z" transform="translate(-392.534 -349.867)" fill="#92b8c0"/>
    </g>
  </g>
  <g id="Group_81" data-name="Group 81" transform="translate(12.083 22.629)">
    <g id="Group_80" data-name="Group 80">
      <path id="Path_61" data-name="Path 61" d="M160.484,384h-15a.417.417,0,0,0,0,.833h15a.417.417,0,0,0,0-.833Z" transform="translate(-145.067 -384)" fill="#92b8c0"/>
    </g>
  </g>
  <g id="Group_83" data-name="Group 83" transform="translate(2.083 22.629)">
    <g id="Group_82" data-name="Group 82">
      <path id="Path_62" data-name="Path 62" d="M46,384H43.084a.417.417,0,0,0,0,.833H46A.417.417,0,0,0,46,384Z" transform="translate(-42.667 -384)" fill="#92b8c0"/>
    </g>
  </g>
  <g id="Group_85" data-name="Group 85" transform="translate(2.083 25.417)">
    <g id="Group_84" data-name="Group 84">
      <path id="Path_63" data-name="Path 63" d="M58.084,418.133h-15a.417.417,0,0,0,0,.833h15a.417.417,0,1,0,0-.833Z" transform="translate(-42.667 -418.133)" fill="#92b8c0"/>
    </g>
  </g>
  <g id="Group_87" data-name="Group 87" transform="translate(24.167 25.417)">
    <g id="Group_86" data-name="Group 86">
      <path id="Path_64" data-name="Path 64" d="M395.867,418.133h-2.917a.417.417,0,1,0,0,.833h2.917a.417.417,0,0,0,0-.833Z" transform="translate(-392.534 -418.133)" fill="#92b8c0"/>
    </g>
  </g>
  <g id="Group_89" data-name="Group 89" transform="translate(12.083 27.083)">
    <g id="Group_88" data-name="Group 88">
      <path id="Path_65" data-name="Path 65" d="M160.484,452.267h-15a.417.417,0,0,0,0,.833h15a.417.417,0,0,0,0-.833Z" transform="translate(-145.067 -452.267)" fill="#92b8c0"/>
    </g>
  </g>
  <g id="Group_91" data-name="Group 91" transform="translate(2.083 27.083)">
    <g id="Group_90" data-name="Group 90">
      <path id="Path_66" data-name="Path 66" d="M46,452.267H43.084a.417.417,0,0,0,0,.833H46a.417.417,0,0,0,0-.833Z" transform="translate(-42.667 -452.267)" fill="#92b8c0"/>
    </g>
  </g>
</svg>
