<svg xmlns="http://www.w3.org/2000/svg" width="29.256" height="27.757" viewBox="0 0 29.256 27.757">
  <g id="Group_560" data-name="Group 560" transform="translate(5532.256 15940.025)">
    <path id="Path_4" data-name="Path 4" d="M120.854,71.952h-2.336c-1.912,0-3.468,1.279-3.468,2.852v2.161h-2.176a.826.826,0,1,0,0,1.621h2.176v7.5a1,1,0,0,0,1.971,0v-7.5h3.367a.826.826,0,1,0,0-1.621h-3.367V74.8a1.385,1.385,0,0,1,1.5-1.231h2.336a.826.826,0,1,0,0-1.621Z" transform="translate(-5634.364 -16005.038)" fill="#fff"/>
    <g id="Group_13" data-name="Group 13" transform="translate(-5532.256 -15940.025)">
      <g id="Group_12" data-name="Group 12">
        <path id="Path_11" data-name="Path 11" d="M24.971,4.065A14.939,14.939,0,0,0,14.628,0,14.939,14.939,0,0,0,4.284,4.065a13.381,13.381,0,0,0,0,19.627,14.939,14.939,0,0,0,10.343,4.065,14.939,14.939,0,0,0,10.343-4.065,13.381,13.381,0,0,0,0-19.627ZM14.628,26.881c-7.556,0-13.7-5.833-13.7-13s6.148-13,13.7-13,13.7,5.833,13.7,13S22.184,26.881,14.628,26.881Z" transform="translate(0 0)" fill="#fff"/>
      </g>
    </g>
  </g>
</svg>
